{
  "mnemonic": [
    "huge",
    "exile",
    "alpha",
    "addict",
    "skull",
    "shrug",
    "friend",
    "inhale",
    "useful",
    "artist",
    "business",
    "brother",
    "arm",
    "neither",
    "left"
  ],
  "secret": "6f08ff93aa1ef000df09ecb15d4c7948af2544eb",
  "amount": "20262043093",
  "pkh": "tz1bLz9NvpiRmWHdJdR3ssjh2MVFKeVAs4NG",
  "password": "3bdMFA1FVB",
  "email": "ujydhgle.pufckjyk@tezos.example.org"
}
